…
## year

|            |        2.5 %|       97.5 %|
|:-----------|------------:|------------:|
|(Intercept) | -649.0314652| -522.2729096|
|year        |    0.2938872|    0.3579204|

```r
tidy_predictions(models)
```

# A tibble: 5,112 x 12
   lifeExp    pop .fitted .se.fit .resid    .hat .sigma .cooksd .std.resid
     <dbl>  <int>   <dbl>   <dbl>  <dbl>   <dbl>  <dbl>   <dbl>      <dbl>
 1    28.8 8.43e6    59.3   0.319  -30.5 6.10e-4   12.9 1.71e-3      -2.37
 2    30.3 9.24e6    59.3   0.318  -29.0 6.08e-4   12.9 1.54e-3      -2.25
 3    32.0 1.03e7    59.3   0.317  -27.3 6.06e-4   12.9 1.36e-3      -2.12
 4    34.0 1.15e7    59.3   0.317  -25.3 6.04e-4   12.9 1.16e-3      -1.96
 5    36.1 1.31e7    59.3   0.316  -23.3 6.01e-4   12.9 9.79e-4      -1.80
 6    38.4 1.49e7    59.4   0.315  -20.9 5.98e-4   12.9 7.88e-4      -1.62
 7    39.9 1.29e7    59.3   0.316  -19.5 6.01e-4   12.9 6.88e-4      -1.51
 8    40.8 1.39e7    59.4   0.316  -18.5 6.00e-4   12.9 6.20e-4      -1.44
 9    41.7 1.63e7    59.4   0.315  -17.7 5.96e-4   12.9 5.62e-4      -1.37
10    41.8 2.22e7    59.4   0.313  -17.7 5.90e-4   12.9 5.53e-4      -1.37
# ... with 5,102 more rows, and 3 more variables: model_name <chr>,
#   gdpPercap <dbl>, year <int>
…
